Capstone Project : Cyclistic Trip Data Analysis
…
Checking how many rides were taken by different members on the basis of Months

trips_updated %>% 
  group_by(member_casual, month) %>%  
  summarise(number_of_rides = n(),`avg_ride` = mean(ride_len)) %>% 
  arrange(member_casual,desc(number_of_rides))

## `summarise()` has grouped output by 'member_casual'. You can override using the `.groups` argument.

## # A tibble: 24 x 4
## # Groups:   member_casual [2]
##    member_casual month     number_of_rides avg_ride
##    <chr>         <yearmon>           <int>    <dbl>
##  1 casual        Aug 2020           281987     44.2
##  2 casual        Jul 2020           268125     59.3
##  3 casual        Sep 2020           214681     38.4
##  4 casual        Jun 2020           154342     51.2
##  5 casual        Oct 2020           122328     31.3
##  6 casual        May 2020            86699     50.6
##  7 casual        Mar 2021            75641     38.5
##  8 casual        Nov 2020            72850     33.5
##  9 casual        Dec 2020            24492     27.6
## 10 casual        Apr 2020            23570     72.5
## # ... with 14 more rows
…
